{
  "employee": [
    {
      "id": 2,
      "name": "Ram",
      "email": "ram@gmail.com"
    },
    {
      "id": 3,
      "name": "Sahil singh",
      "email": "sahil@gmail.com"
    },
    {
      "id": 4,
      "name": "Vishaal",
      "email": "vishal@gmail.com"
    },
    {
      "id": 5,
      "name": "Radha",
      "email": "radha@gmail.com"
    },
    {
      "id": 6,
      "name": "raghu",
      "email": "raghu@gmail.com"
    },
    {
      "id": 7,
      "name": "Sham",
      "email": "Sham@gmail.com"
    },
    {
      "id": 8,
      "name": "kjhfskjhkf",
      "email": "ankjhkjashkjdfshjkfdas"
    },
    {
      "name": "vishal",
      "id": 9
    },
    {
      "id": 10,
      "name": "jkahkjhkajhd",
      "email": "asm;lkfal;skf;lksda;lk;asdlkfasd"
    }
  ]
}